{
  "expoServerPort": 19000,
  "expoServerNgrokUrl": "https://ju-h3q.anonymous.digital-menu-ui.exp.direct",
  "packagerNgrokUrl": "https://packager.ju-h3q.anonymous.digital-menu-ui.exp.direct",
  "ngrokPid": 6132,
  "devToolsPort": 19002,
  "packagerPort": 19001,
  "packagerPid": 2652,
  "webpackServerPort": null
}
